{
"resetCertificat":"Your certificate was reset",
"accountCreated":"تم إنشاء حسابك و إرسال كلمة المرور المؤقتة إلى  بريدك الإلكتروني.",
"autoMail":"تم إرسال هذا البريد تلقائيا ",
"click2Register":"انقر هنا لتأكيد تسجيل حسابك",
"click2Reset":"انقر هنا لإعادة تعيين كلمة المرور",
"hello":"مرحبا ",
"mail2fSubject":"[LemonLDAP::NG] تسجيل الدخول الخاص بك هو ",
"mailConfirmSubject":"تأكيد إعادة تعيين كلمة المرور[LemonLDAP::NG]",
"mailSubject":"كلمة المرور الجديدة [LemonLDAP::NG]",
"newPwdIs":"كلمة المرور الجديدة هي",
"pwdChanged":"تم تغيير كلمة المرور الخاصة بك",
"pwdIs":"كلمة المرور الخاصة بك هي",
"registerConfirmSubject":"تأكيد تسجيل الحساب[LemonLDAP::NG] ",
"registerDoneSubject":"حسابك الجديد[LemonLDAP::NG]",
"requestIssuedFromIP":"الطلب قد أرسل من عنوان الآي بي",
"yourLoginCodeIs":"Your login code is",
"yourLoginIs":"تسجيل الدخول الخاص بك هو"
}
